Date,Code,MoxID,SensorID,FlagDB,Archivo
17/10/03 12:58:37,10,32017000,-,1,LOGFAIL171003
17/10/03 14:53:22,10,32017000,-,1,LOGFAIL171003
17/10/03 14:49:18,10,32017000,-,1,LOGFAIL171003
17/10/03 14:38:53,10,32017000,-,1,LOGFAIL171003
17/10/03 14:38:26,10,32017000,-,1,LOGFAIL171003
17/10/03 14:41:30,11,32017000,-,1,LOGFAIL171003
17/10/03 14:40:12,10,32017000,-,1,LOGFAIL171003
17/10/03 14:38:22,10,32017000,-,1,LOGFAIL171003
17/10/03 12:58:55,10,32017000,-,1,LOGFAIL171003
17/10/03 12:58:48,11,32017000,-,1,LOGFAIL171003
17/10/03 12:59:22,10,32017000,-,1,LOGFAIL171003
17/10/03 12:59:15,11,32017000,-,1,LOGFAIL171003
17/10/03 12:59:49,10,32017000,-,1,LOGFAIL171003
17/10/03 12:59:42,11,32017000,-,1,LOGFAIL171003
17/10/03 13:00:09,11,32017000,-,1,LOGFAIL171003
17/10/03 13:00:16,10,32017000,-,1,LOGFAIL171003
17/10/03 13:00:36,11,32017000,-,1,LOGFAIL171003
17/10/03 13:00:43,10,32017000,-,1,LOGFAIL171003
17/10/03 13:01:03,11,32017000,-,1,LOGFAIL171003
17/10/03 13:01:10,10,32017000,-,1,LOGFAIL171003
17/10/03 13:01:31,11,32017000,-,1,LOGFAIL171003
17/10/03 13:01:38,10,32017000,-,1,LOGFAIL171003
17/10/03 13:01:58,11,32017000,-,1,LOGFAIL171003
17/10/03 13:02:05,10,32017000,-,1,LOGFAIL171003
17/10/03 13:02:32,10,32017000,-,1,LOGFAIL171003
17/10/03 13:02:25,11,32017000,-,1,LOGFAIL171003
17/10/03 13:02:52,11,32017000,-,1,LOGFAIL171003
17/10/03 13:02:59,10,32017000,-,1,LOGFAIL171003
17/10/03 13:03:26,10,32017000,-,1,LOGFAIL171003
17/10/03 13:03:19,11,32017000,-,1,LOGFAIL171003
17/10/03 13:03:53,10,32017000,-,1,LOGFAIL171003
17/10/03 13:03:46,11,32017000,-,1,LOGFAIL171003
17/10/03 13:04:13,11,32017000,-,1,LOGFAIL171003
17/10/03 13:04:20,10,32017000,-,1,LOGFAIL171003
17/10/03 13:04:47,10,32017000,-,1,LOGFAIL171003
17/10/03 13:04:40,11,32017000,-,1,LOGFAIL171003
17/10/03 13:05:14,10,32017000,-,1,LOGFAIL171003
17/10/03 13:05:07,11,32017000,-,1,LOGFAIL171003
17/10/03 13:05:34,11,32017000,-,1,LOGFAIL171003
17/10/03 13:05:41,10,32017000,-,1,LOGFAIL171003
17/10/03 13:06:08,10,32017000,-,1,LOGFAIL171003
17/10/03 13:06:01,11,32017000,-,1,LOGFAIL171003
17/10/03 13:06:28,11,32017000,-,1,LOGFAIL171003
17/10/03 13:06:35,10,32017000,-,1,LOGFAIL171003
17/10/03 13:06:55,11,32017000,-,1,LOGFAIL171003
17/10/03 13:07:02,10,32017000,-,1,LOGFAIL171003
17/10/03 13:07:22,11,32017000,-,1,LOGFAIL171003
17/10/03 13:07:29,10,32017000,-,1,LOGFAIL171003
17/10/03 13:07:56,10,32017000,-,1,LOGFAIL171003
17/10/03 13:07:49,11,32017000,-,1,LOGFAIL171003
17/10/03 13:08:16,11,32017000,-,1,LOGFAIL171003
17/10/03 13:08:23,10,32017000,-,1,LOGFAIL171003
17/10/03 13:08:43,11,32017000,-,1,LOGFAIL171003
17/10/03 13:08:50,10,32017000,-,1,LOGFAIL171003
17/10/03 13:09:10,11,32017000,-,1,LOGFAIL171003
17/10/03 13:09:18,10,32017000,-,1,LOGFAIL171003
17/10/03 13:09:45,10,32017000,-,1,LOGFAIL171003
17/10/03 13:09:38,11,32017000,-,1,LOGFAIL171003
17/10/03 13:10:05,11,32017000,-,1,LOGFAIL171003
17/10/03 13:10:12,10,32017000,-,1,LOGFAIL171003
17/10/03 13:10:32,11,32017000,-,1,LOGFAIL171003
17/10/03 13:10:39,10,32017000,-,1,LOGFAIL171003
17/10/03 13:10:59,11,32017000,-,1,LOGFAIL171003
17/10/03 13:11:06,10,32017000,-,1,LOGFAIL171003
17/10/03 13:11:26,11,32017000,-,1,LOGFAIL171003
17/10/03 13:11:33,10,32017000,-,1,LOGFAIL171003
17/10/03 13:11:53,11,32017000,-,1,LOGFAIL171003
17/10/03 13:12:00,10,32017000,-,1,LOGFAIL171003
17/10/03 13:12:20,11,32017000,-,1,LOGFAIL171003
17/10/03 13:12:27,10,32017000,-,1,LOGFAIL171003
17/10/03 13:12:47,11,32017000,-,1,LOGFAIL171003
17/10/03 13:12:54,10,32017000,-,1,LOGFAIL171003
17/10/03 13:13:14,11,32017000,-,1,LOGFAIL171003
17/10/03 13:13:21,10,32017000,-,1,LOGFAIL171003
17/10/03 13:13:48,10,32017000,-,1,LOGFAIL171003
17/10/03 13:13:41,11,32017000,-,1,LOGFAIL171003
17/10/03 13:14:15,10,32017000,-,1,LOGFAIL171003
17/10/03 13:14:08,11,32017000,-,1,LOGFAIL171003
17/10/03 13:14:42,10,32017000,-,1,LOGFAIL171003
17/10/03 13:14:35,11,32017000,-,1,LOGFAIL171003
17/10/03 13:15:09,10,32017000,-,1,LOGFAIL171003
17/10/03 13:15:02,11,32017000,-,1,LOGFAIL171003
17/10/03 13:15:29,11,32017000,-,1,LOGFAIL171003
17/10/03 13:15:36,10,32017000,-,1,LOGFAIL171003
17/10/03 13:15:57,11,32017000,-,1,LOGFAIL171003
17/10/03 13:16:04,10,32017000,-,1,LOGFAIL171003
17/10/03 13:16:24,11,32017000,-,1,LOGFAIL171003
17/10/03 13:16:31,10,32017000,-,1,LOGFAIL171003
17/10/03 13:16:58,10,32017000,-,1,LOGFAIL171003
17/10/03 13:16:51,11,32017000,-,1,LOGFAIL171003
17/10/03 13:17:18,11,32017000,-,1,LOGFAIL171003
17/10/03 13:17:25,10,32017000,-,1,LOGFAIL171003
17/10/03 13:17:45,11,32017000,-,1,LOGFAIL171003
17/10/03 13:17:52,10,32017000,-,1,LOGFAIL171003
17/10/03 13:18:12,11,32017000,-,1,LOGFAIL171003
17/10/03 13:18:19,10,32017000,-,1,LOGFAIL171003
17/10/03 13:19:33,11,32017000,-,1,LOGFAIL171003
17/10/03 13:20:00,11,32017000,-,1,LOGFAIL171003
17/10/03 13:19:40,10,32017000,-,1,LOGFAIL171003
17/10/03 13:19:13,10,32017000,-,1,LOGFAIL171003
17/10/03 13:18:46,10,32017000,-,1,LOGFAIL171003
17/10/03 13:18:39,11,32017000,-,1,LOGFAIL171003
17/10/03 13:19:06,11,32017000,-,1,LOGFAIL171003
17/10/03 13:20:07,10,32017000,-,1,LOGFAIL171003
17/10/03 13:20:27,11,32017000,-,1,LOGFAIL171003
17/10/03 13:20:34,10,32017000,-,1,LOGFAIL171003
17/10/03 13:20:54,11,32017000,-,1,LOGFAIL171003
17/10/03 13:21:01,10,32017000,-,1,LOGFAIL171003
17/10/03 13:21:21,11,32017000,-,1,LOGFAIL171003
17/10/03 13:21:28,10,32017000,-,1,LOGFAIL171003
17/10/03 13:21:48,11,32017000,-,1,LOGFAIL171003
17/10/03 13:21:55,10,32017000,-,1,LOGFAIL171003
17/10/03 13:22:15,11,32017000,-,1,LOGFAIL171003
17/10/03 13:22:22,10,32017000,-,1,LOGFAIL171003
17/10/03 13:22:42,11,32017000,-,1,LOGFAIL171003
17/10/03 13:22:49,10,32017000,-,1,LOGFAIL171003
17/10/03 13:23:09,11,32017000,-,1,LOGFAIL171003
17/10/03 13:23:16,10,32017000,-,1,LOGFAIL171003
17/10/03 13:23:36,11,32017000,-,1,LOGFAIL171003
17/10/03 13:23:43,10,32017000,-,1,LOGFAIL171003
17/10/03 13:24:03,11,32017000,-,1,LOGFAIL171003
17/10/03 13:24:10,10,32017000,-,1,LOGFAIL171003
17/10/03 13:24:31,11,32017000,-,1,LOGFAIL171003
17/10/03 13:24:38,10,32017000,-,1,LOGFAIL171003
17/10/03 13:24:58,11,32017000,-,1,LOGFAIL171003
17/10/03 13:25:05,10,32017000,-,1,LOGFAIL171003
17/10/03 13:25:25,11,32017000,-,1,LOGFAIL171003
17/10/03 13:25:32,10,32017000,-,1,LOGFAIL171003
17/10/03 13:25:52,11,32017000,-,1,LOGFAIL171003
17/10/03 13:25:59,10,32017000,-,1,LOGFAIL171003
17/10/03 13:26:19,11,32017000,-,1,LOGFAIL171003
17/10/03 13:26:26,10,32017000,-,1,LOGFAIL171003
17/10/03 13:26:46,11,32017000,-,1,LOGFAIL171003
17/10/03 13:26:53,10,32017000,-,1,LOGFAIL171003
17/10/03 13:27:13,11,32017000,-,1,LOGFAIL171003
17/10/03 13:27:20,10,32017000,-,1,LOGFAIL171003
17/10/03 13:27:40,11,32017000,-,1,LOGFAIL171003
17/10/03 13:27:47,10,32017000,-,1,LOGFAIL171003
17/10/03 13:28:07,11,32017000,-,1,LOGFAIL171003
17/10/03 13:28:14,10,32017000,-,1,LOGFAIL171003
17/10/03 13:28:34,11,32017000,-,1,LOGFAIL171003
17/10/03 13:28:41,10,32017000,-,1,LOGFAIL171003
17/10/03 13:29:01,11,32017000,-,1,LOGFAIL171003
17/10/03 13:29:08,10,32017000,-,1,LOGFAIL171003
17/10/03 13:29:28,11,32017000,-,1,LOGFAIL171003
17/10/03 13:29:35,10,32017000,-,1,LOGFAIL171003
17/10/03 13:29:55,11,32017000,-,1,LOGFAIL171003
17/10/03 13:30:02,10,32017000,-,1,LOGFAIL171003
17/10/03 13:30:22,11,32017000,-,1,LOGFAIL171003
17/10/03 13:30:29,10,32017000,-,1,LOGFAIL171003
17/10/03 13:30:49,11,32017000,-,1,LOGFAIL171003
17/10/03 13:30:56,10,32017000,-,1,LOGFAIL171003
17/10/03 13:31:23,10,32017000,-,1,LOGFAIL171003
17/10/03 13:31:43,11,32017000,-,1,LOGFAIL171003
17/10/03 13:31:50,10,32017000,-,1,LOGFAIL171003
17/10/03 13:31:16,11,32017000,-,1,LOGFAIL171003
17/10/03 13:32:10,11,32017000,-,1,LOGFAIL171003
17/10/03 13:32:17,10,32017000,-,1,LOGFAIL171003
17/10/03 13:32:37,11,32017000,-,1,LOGFAIL171003
17/10/03 13:32:44,10,32017000,-,1,LOGFAIL171003
17/10/03 13:33:04,11,32017000,-,1,LOGFAIL171003
17/10/03 13:33:11,10,32017000,-,1,LOGFAIL171003
17/10/03 13:33:38,10,32017000,-,1,LOGFAIL171003
17/10/03 13:33:31,11,32017000,-,1,LOGFAIL171003
17/10/03 13:33:58,11,32017000,-,1,LOGFAIL171003
17/10/03 13:34:05,10,32017000,-,1,LOGFAIL171003
17/10/03 13:34:25,11,32017000,-,1,LOGFAIL171003
17/10/03 13:34:32,10,32017000,-,1,LOGFAIL171003
17/10/03 13:34:59,10,32017000,-,1,LOGFAIL171003
17/10/03 13:34:52,11,32017000,-,1,LOGFAIL171003
17/10/03 13:35:19,11,32017000,-,1,LOGFAIL171003
17/10/03 13:35:27,10,32017000,-,1,LOGFAIL171003
17/10/03 13:35:47,11,32017000,-,1,LOGFAIL171003
17/10/03 13:35:54,10,32017000,-,1,LOGFAIL171003
17/10/03 13:36:14,11,32017000,-,1,LOGFAIL171003
17/10/03 13:36:21,10,32017000,-,1,LOGFAIL171003
17/10/03 13:36:41,11,32017000,-,1,LOGFAIL171003
17/10/03 13:36:48,10,32017000,-,1,LOGFAIL171003
17/10/03 13:37:08,11,32017000,-,1,LOGFAIL171003
17/10/03 13:37:15,10,32017000,-,1,LOGFAIL171003
17/10/03 13:37:35,11,32017000,-,1,LOGFAIL171003
17/10/03 13:37:42,10,32017000,-,1,LOGFAIL171003
17/10/03 13:38:02,11,32017000,-,1,LOGFAIL171003
17/10/03 13:38:09,10,32017000,-,1,LOGFAIL171003
17/10/03 13:38:36,10,32017000,-,1,LOGFAIL171003
17/10/03 13:38:29,11,32017000,-,1,LOGFAIL171003
17/10/03 13:38:56,11,32017000,-,1,LOGFAIL171003
17/10/03 13:39:03,10,32017000,-,1,LOGFAIL171003
17/10/03 13:39:23,11,32017000,-,1,LOGFAIL171003
17/10/03 13:39:30,10,32017000,-,1,LOGFAIL171003
17/10/03 13:39:50,11,32017000,-,1,LOGFAIL171003
17/10/03 13:39:57,10,32017000,-,1,LOGFAIL171003
17/10/03 13:40:17,11,32017000,-,1,LOGFAIL171003
17/10/03 13:40:24,10,32017000,-,1,LOGFAIL171003
17/10/03 13:40:51,10,32017000,-,1,LOGFAIL171003
17/10/03 13:40:44,11,32017000,-,1,LOGFAIL171003
17/10/03 13:41:11,11,32017000,-,1,LOGFAIL171003
17/10/03 13:41:18,10,32017000,-,1,LOGFAIL171003
17/10/03 13:41:38,11,32017000,-,1,LOGFAIL171003
17/10/03 13:41:45,10,32017000,-,1,LOGFAIL171003
17/10/03 13:42:12,10,32017000,-,1,LOGFAIL171003
17/10/03 13:42:59,11,32017000,-,1,LOGFAIL171003
17/10/03 13:42:32,11,32017000,-,1,LOGFAIL171003
17/10/03 13:42:05,11,32017000,-,1,LOGFAIL171003
17/10/03 13:43:06,10,32017000,-,1,LOGFAIL171003
17/10/03 13:42:39,10,32017000,-,1,LOGFAIL171003
17/10/03 13:43:26,11,32017000,-,1,LOGFAIL171003
17/10/03 13:43:33,10,32017000,-,1,LOGFAIL171003
17/10/03 13:43:54,11,32017000,-,1,LOGFAIL171003
17/10/03 13:44:01,10,32017000,-,1,LOGFAIL171003
17/10/03 13:44:21,11,32017000,-,1,LOGFAIL171003
17/10/03 13:44:28,10,32017000,-,1,LOGFAIL171003
17/10/03 13:44:48,11,32017000,-,1,LOGFAIL171003
17/10/03 13:44:55,10,32017000,-,1,LOGFAIL171003
17/10/03 13:45:15,11,32017000,-,1,LOGFAIL171003
17/10/03 13:45:22,10,32017000,-,1,LOGFAIL171003
17/10/03 13:45:42,11,32017000,-,1,LOGFAIL171003
17/10/03 13:45:49,10,32017000,-,1,LOGFAIL171003
17/10/03 13:46:16,10,32017000,-,1,LOGFAIL171003
17/10/03 13:46:09,11,32017000,-,1,LOGFAIL171003
17/10/03 13:46:36,11,32017000,-,1,LOGFAIL171003
17/10/03 13:46:43,10,32017000,-,1,LOGFAIL171003
17/10/03 13:47:03,11,32017000,-,1,LOGFAIL171003
17/10/03 13:47:10,10,32017000,-,1,LOGFAIL171003
17/10/03 13:47:30,11,32017000,-,1,LOGFAIL171003
17/10/03 13:47:37,10,32017000,-,1,LOGFAIL171003
17/10/03 13:47:57,11,32017000,-,1,LOGFAIL171003
17/10/03 13:48:04,10,32017000,-,1,LOGFAIL171003
17/10/03 13:48:24,11,32017000,-,1,LOGFAIL171003
17/10/03 13:48:31,10,32017000,-,1,LOGFAIL171003
17/10/03 13:48:51,11,32017000,-,1,LOGFAIL171003
17/10/03 13:48:58,10,32017000,-,1,LOGFAIL171003
17/10/03 13:49:18,11,32017000,-,1,LOGFAIL171003
17/10/03 13:49:25,10,32017000,-,1,LOGFAIL171003
17/10/03 13:49:45,11,32017000,-,1,LOGFAIL171003
17/10/03 13:49:52,10,32017000,-,1,LOGFAIL171003
17/10/03 13:50:12,11,32017000,-,1,LOGFAIL171003
17/10/03 13:50:19,10,32017000,-,1,LOGFAIL171003
17/10/03 13:50:39,11,32017000,-,1,LOGFAIL171003
17/10/03 13:50:46,10,32017000,-,1,LOGFAIL171003
17/10/03 13:51:06,11,32017000,-,1,LOGFAIL171003
17/10/03 13:51:13,10,32017000,-,1,LOGFAIL171003
17/10/03 13:51:33,11,32017000,-,1,LOGFAIL171003
17/10/03 13:51:40,10,32017000,-,1,LOGFAIL171003
17/10/03 13:52:00,11,32017000,-,1,LOGFAIL171003
17/10/03 13:52:07,10,32017000,-,1,LOGFAIL171003
17/10/03 13:52:28,11,32017000,-,1,LOGFAIL171003
17/10/03 13:52:35,10,32017000,-,1,LOGFAIL171003
17/10/03 13:52:55,11,32017000,-,1,LOGFAIL171003
17/10/03 13:53:02,10,32017000,-,1,LOGFAIL171003
17/10/03 13:53:22,11,32017000,-,1,LOGFAIL171003
17/10/03 13:53:29,10,32017000,-,1,LOGFAIL171003
17/10/03 13:53:49,11,32017000,-,1,LOGFAIL171003
17/10/03 13:53:56,10,32017000,-,1,LOGFAIL171003
17/10/03 13:54:16,11,32017000,-,1,LOGFAIL171003
17/10/03 13:54:23,10,32017000,-,1,LOGFAIL171003
17/10/03 13:54:43,11,32017000,-,1,LOGFAIL171003
17/10/03 13:54:50,10,32017000,-,1,LOGFAIL171003
17/10/03 13:55:10,11,32017000,-,1,LOGFAIL171003
17/10/03 13:55:17,10,32017000,-,1,LOGFAIL171003
17/10/03 13:55:37,11,32017000,-,1,LOGFAIL171003
17/10/03 13:55:44,10,32017000,-,1,LOGFAIL171003
17/10/03 13:56:04,11,32017000,-,1,LOGFAIL171003
17/10/03 13:56:11,10,32017000,-,1,LOGFAIL171003
17/10/03 13:56:31,11,32017000,-,1,LOGFAIL171003
17/10/03 13:56:38,10,32017000,-,1,LOGFAIL171003
17/10/03 13:56:58,11,32017000,-,1,LOGFAIL171003
17/10/03 13:57:05,10,32017000,-,1,LOGFAIL171003
17/10/03 13:57:25,11,32017000,-,1,LOGFAIL171003
17/10/03 13:57:32,10,32017000,-,1,LOGFAIL171003
17/10/03 13:57:52,11,32017000,-,1,LOGFAIL171003
17/10/03 13:57:59,10,32017000,-,1,LOGFAIL171003
17/10/03 13:58:19,11,32017000,-,1,LOGFAIL171003
17/10/03 13:58:26,10,32017000,-,1,LOGFAIL171003
17/10/03 13:58:46,11,32017000,-,1,LOGFAIL171003
17/10/03 13:58:53,10,32017000,-,1,LOGFAIL171003
17/10/03 13:59:13,11,32017000,-,1,LOGFAIL171003
17/10/03 13:59:20,10,32017000,-,1,LOGFAIL171003
17/10/03 13:59:40,11,32017000,-,1,LOGFAIL171003
17/10/03 13:59:47,10,32017000,-,1,LOGFAIL171003
17/10/03 14:00:07,11,32017000,-,1,LOGFAIL171003
17/10/03 14:00:14,10,32017000,-,1,LOGFAIL171003
17/10/03 14:00:34,11,32017000,-,1,LOGFAIL171003
17/10/03 14:00:41,10,32017000,-,1,LOGFAIL171003
17/10/03 14:01:02,11,32017000,-,1,LOGFAIL171003
17/10/03 14:01:09,10,32017000,-,1,LOGFAIL171003
17/10/03 14:01:29,11,32017000,-,1,LOGFAIL171003
17/10/03 14:01:36,10,32017000,-,1,LOGFAIL171003
17/10/03 14:01:56,11,32017000,-,1,LOGFAIL171003
17/10/03 14:02:03,10,32017000,-,1,LOGFAIL171003
17/10/03 14:02:23,11,32017000,-,1,LOGFAIL171003
17/10/03 14:02:30,10,32017000,-,1,LOGFAIL171003
17/10/03 14:02:50,11,32017000,-,1,LOGFAIL171003
17/10/03 14:02:57,10,32017000,-,1,LOGFAIL171003
17/10/03 14:03:17,11,32017000,-,1,LOGFAIL171003
17/10/03 14:03:24,10,32017000,-,1,LOGFAIL171003
17/10/03 14:03:44,11,32017000,-,1,LOGFAIL171003
17/10/03 14:03:51,10,32017000,-,1,LOGFAIL171003
17/10/03 14:04:11,11,32017000,-,1,LOGFAIL171003
17/10/03 14:04:18,10,32017000,-,1,LOGFAIL171003
17/10/03 14:04:38,11,32017000,-,1,LOGFAIL171003
17/10/03 14:04:45,10,32017000,-,1,LOGFAIL171003
17/10/03 14:05:05,11,32017000,-,1,LOGFAIL171003
17/10/03 14:05:12,10,32017000,-,1,LOGFAIL171003
17/10/03 14:05:32,11,32017000,-,1,LOGFAIL171003
17/10/03 14:05:39,10,32017000,-,1,LOGFAIL171003
17/10/03 14:05:59,11,32017000,-,1,LOGFAIL171003
17/10/03 14:06:06,10,32017000,-,1,LOGFAIL171003
17/10/03 14:06:26,11,32017000,-,1,LOGFAIL171003
17/10/03 14:06:33,10,32017000,-,1,LOGFAIL171003
17/10/03 14:06:53,11,32017000,-,1,LOGFAIL171003
17/10/03 14:07:00,10,32017000,-,1,LOGFAIL171003
17/10/03 14:07:20,11,32017000,-,1,LOGFAIL171003
17/10/03 14:07:27,10,32017000,-,1,LOGFAIL171003
17/10/03 14:07:47,11,32017000,-,1,LOGFAIL171003
17/10/03 14:07:54,10,32017000,-,1,LOGFAIL171003
17/10/03 14:08:14,11,32017000,-,1,LOGFAIL171003
17/10/03 14:08:22,10,32017000,-,1,LOGFAIL171003
17/10/03 14:09:43,10,32017000,-,1,LOGFAIL171003
17/10/03 14:09:36,11,32017000,-,1,LOGFAIL171003
17/10/03 14:09:16,10,32017000,-,1,LOGFAIL171003
17/10/03 14:08:49,10,32017000,-,1,LOGFAIL171003
17/10/03 14:09:09,11,32017000,-,1,LOGFAIL171003
17/10/03 14:08:42,11,32017000,-,1,LOGFAIL171003
17/10/03 14:10:03,11,32017000,-,1,LOGFAIL171003
17/10/03 14:10:10,10,32017000,-,1,LOGFAIL171003
17/10/03 14:10:30,11,32017000,-,1,LOGFAIL171003
17/10/03 14:10:37,10,32017000,-,1,LOGFAIL171003
17/10/03 14:10:57,11,32017000,-,1,LOGFAIL171003
17/10/03 14:11:04,10,32017000,-,1,LOGFAIL171003
17/10/03 14:11:24,11,32017000,-,1,LOGFAIL171003
17/10/03 14:11:31,10,32017000,-,1,LOGFAIL171003
17/10/03 14:11:51,11,32017000,-,1,LOGFAIL171003
17/10/03 14:11:58,10,32017000,-,1,LOGFAIL171003
17/10/03 14:12:18,11,32017000,-,1,LOGFAIL171003
17/10/03 14:12:25,10,32017000,-,1,LOGFAIL171003
17/10/03 14:12:45,11,32017000,-,1,LOGFAIL171003
17/10/03 14:12:52,10,32017000,-,1,LOGFAIL171003
17/10/03 14:13:12,11,32017000,-,1,LOGFAIL171003
17/10/03 14:13:19,10,32017000,-,1,LOGFAIL171003
17/10/03 14:13:39,11,32017000,-,1,LOGFAIL171003
17/10/03 14:13:46,10,32017000,-,1,LOGFAIL171003
17/10/03 14:14:06,11,32017000,-,1,LOGFAIL171003
17/10/03 14:14:13,10,32017000,-,1,LOGFAIL171003
17/10/03 14:14:33,11,32017000,-,1,LOGFAIL171003
17/10/03 14:14:40,10,32017000,-,1,LOGFAIL171003
17/10/03 14:15:00,11,32017000,-,1,LOGFAIL171003
17/10/03 14:15:07,10,32017000,-,1,LOGFAIL171003
17/10/03 14:15:34,10,32017000,-,1,LOGFAIL171003
17/10/03 14:15:27,11,32017000,-,1,LOGFAIL171003
17/10/03 14:15:55,11,32017000,-,1,LOGFAIL171003
17/10/03 14:16:02,10,32017000,-,1,LOGFAIL171003
17/10/03 14:16:22,11,32017000,-,1,LOGFAIL171003
17/10/03 14:16:29,10,32017000,-,1,LOGFAIL171003
17/10/03 14:16:49,11,32017000,-,1,LOGFAIL171003
17/10/03 14:16:56,10,32017000,-,1,LOGFAIL171003
17/10/03 14:17:16,11,32017000,-,1,LOGFAIL171003
17/10/03 14:17:23,10,32017000,-,1,LOGFAIL171003
17/10/03 14:17:43,11,32017000,-,1,LOGFAIL171003
17/10/03 14:17:50,10,32017000,-,1,LOGFAIL171003
17/10/03 14:18:10,11,32017000,-,1,LOGFAIL171003
17/10/03 14:18:17,10,32017000,-,1,LOGFAIL171003
17/10/03 14:18:37,11,32017000,-,1,LOGFAIL171003
17/10/03 14:18:44,10,32017000,-,1,LOGFAIL171003
17/10/03 14:19:04,11,32017000,-,1,LOGFAIL171003
17/10/03 14:19:11,10,32017000,-,1,LOGFAIL171003
17/10/03 14:19:31,11,32017000,-,1,LOGFAIL171003
17/10/03 14:19:38,10,32017000,-,1,LOGFAIL171003
17/10/03 14:19:58,11,32017000,-,1,LOGFAIL171003
17/10/03 14:20:05,10,32017000,-,1,LOGFAIL171003
17/10/03 14:20:25,11,32017000,-,1,LOGFAIL171003
17/10/03 14:20:32,10,32017000,-,1,LOGFAIL171003
17/10/03 14:20:52,11,32017000,-,1,LOGFAIL171003
17/10/03 14:20:59,10,32017000,-,1,LOGFAIL171003
17/10/03 14:21:19,11,32017000,-,1,LOGFAIL171003
17/10/03 14:21:26,10,32017000,-,1,LOGFAIL171003
17/10/03 14:21:46,11,32017000,-,1,LOGFAIL171003
17/10/03 14:21:53,10,32017000,-,1,LOGFAIL171003
17/10/03 14:22:13,11,32017000,-,1,LOGFAIL171003
17/10/03 14:22:20,10,32017000,-,1,LOGFAIL171003
17/10/03 14:22:40,11,32017000,-,1,LOGFAIL171003
17/10/03 14:22:47,10,32017000,-,1,LOGFAIL171003
17/10/03 14:23:08,11,32017000,-,1,LOGFAIL171003
17/10/03 14:23:15,10,32017000,-,1,LOGFAIL171003
17/10/03 14:23:35,11,32017000,-,1,LOGFAIL171003
17/10/03 14:23:42,10,32017000,-,1,LOGFAIL171003
17/10/03 14:24:02,11,32017000,-,1,LOGFAIL171003
17/10/03 14:24:09,10,32017000,-,1,LOGFAIL171003
17/10/03 14:24:29,11,32017000,-,1,LOGFAIL171003
17/10/03 14:24:36,10,32017000,-,1,LOGFAIL171003
17/10/03 14:24:56,11,32017000,-,1,LOGFAIL171003
17/10/03 14:25:03,10,32017000,-,1,LOGFAIL171003
17/10/03 14:25:23,11,32017000,-,1,LOGFAIL171003
17/10/03 14:25:30,10,32017000,-,1,LOGFAIL171003
17/10/03 14:25:50,11,32017000,-,1,LOGFAIL171003
17/10/03 14:25:57,10,32017000,-,1,LOGFAIL171003
17/10/03 14:26:17,11,32017000,-,1,LOGFAIL171003
17/10/03 14:26:24,10,32017000,-,1,LOGFAIL171003
17/10/03 14:26:44,11,32017000,-,1,LOGFAIL171003
17/10/03 14:26:51,10,32017000,-,1,LOGFAIL171003
17/10/03 14:27:11,11,32017000,-,1,LOGFAIL171003
17/10/03 14:27:18,10,32017000,-,1,LOGFAIL171003
17/10/03 14:27:38,11,32017000,-,1,LOGFAIL171003
17/10/03 14:27:45,10,32017000,-,1,LOGFAIL171003
17/10/03 14:28:05,11,32017000,-,1,LOGFAIL171003
17/10/03 14:28:12,10,32017000,-,1,LOGFAIL171003
17/10/03 14:28:32,11,32017000,-,1,LOGFAIL171003
17/10/03 14:28:39,10,32017000,-,1,LOGFAIL171003
17/10/03 14:28:59,11,32017000,-,1,LOGFAIL171003
17/10/03 14:29:06,10,32017000,-,1,LOGFAIL171003
17/10/03 14:29:26,11,32017000,-,1,LOGFAIL171003
17/10/03 14:29:33,10,32017000,-,1,LOGFAIL171003
17/10/03 14:29:54,11,32017000,-,1,LOGFAIL171003
17/10/03 14:30:01,10,32017000,-,1,LOGFAIL171003
17/10/03 14:30:21,11,32017000,-,1,LOGFAIL171003
17/10/03 14:30:28,10,32017000,-,1,LOGFAIL171003
17/10/03 14:30:48,11,32017000,-,1,LOGFAIL171003
17/10/03 14:30:55,10,32017000,-,1,LOGFAIL171003
17/10/03 14:31:22,10,32017000,-,1,LOGFAIL171003
17/10/03 14:31:15,11,32017000,-,1,LOGFAIL171003
17/10/03 14:31:42,11,32017000,-,1,LOGFAIL171003
17/10/03 14:31:49,10,32017000,-,1,LOGFAIL171003
17/10/03 14:32:09,11,32017000,-,1,LOGFAIL171003
17/10/03 14:32:16,10,32017000,-,1,LOGFAIL171003
17/10/03 14:32:36,11,32017000,-,1,LOGFAIL171003
17/10/03 14:32:43,10,32017000,-,1,LOGFAIL171003
17/10/03 14:33:26,10,32017000,-,1,LOGFAIL171003
17/10/03 14:34:09,10,32017000,-,1,LOGFAIL171003
17/10/03 14:34:20,11,32017000,-,1,LOGFAIL171003
17/10/03 14:34:27,10,32017000,-,1,LOGFAIL171003
17/10/03 14:35:04,10,32017000,-,1,LOGFAIL171003
17/10/03 14:35:21,10,32017000,-,1,LOGFAIL171003
17/10/03 14:35:33,11,32017000,-,1,LOGFAIL171003
17/10/03 14:35:40,10,32017000,-,1,LOGFAIL171003
17/10/03 14:36:00,11,32017000,-,1,LOGFAIL171003
17/10/03 14:36:07,10,32017000,-,1,LOGFAIL171003
17/10/03 14:36:27,11,32017000,-,1,LOGFAIL171003
17/10/03 14:36:34,10,32017000,-,1,LOGFAIL171003
17/10/03 14:36:54,11,32017000,-,1,LOGFAIL171003
17/10/03 14:37:01,10,32017000,-,1,LOGFAIL171003
17/10/03 14:37:21,11,32017000,-,1,LOGFAIL171003
17/10/03 14:37:28,10,32017000,-,1,LOGFAIL171003
17/10/03 14:37:48,11,32017000,-,1,LOGFAIL171003
17/10/03 14:37:55,10,32017000,-,1,LOGFAIL171003
17/10/03 14:38:15,11,32017000,-,1,LOGFAIL171003
17/10/03 14:38:43,11,32017000,-,1,LOGFAIL171003
17/10/03 14:38:50,10,32017000,-,1,LOGFAIL171003
17/10/03 14:39:11,11,32017000,-,1,LOGFAIL171003
17/10/03 14:39:18,10,32017000,-,1,LOGFAIL171003
17/10/03 14:39:38,11,32017000,-,1,LOGFAIL171003
17/10/03 14:39:45,10,32017000,-,1,LOGFAIL171003
17/10/03 14:40:05,11,32017000,-,1,LOGFAIL171003
17/10/03 14:40:35,11,32017000,-,1,LOGFAIL171003
17/10/03 14:40:42,10,32017000,-,1,LOGFAIL171003
17/10/03 14:41:02,11,32017000,-,1,LOGFAIL171003
17/10/03 14:41:09,10,32017000,-,1,LOGFAIL171003
17/10/03 14:41:38,10,32017000,-,1,LOGFAIL171003
17/10/03 14:41:58,11,32017000,-,1,LOGFAIL171003
17/10/03 14:42:05,10,32017000,-,1,LOGFAIL171003
17/10/03 14:42:25,11,32017000,-,1,LOGFAIL171003
17/10/03 14:42:32,10,32017000,-,1,LOGFAIL171003
17/10/03 14:42:52,11,32017000,-,1,LOGFAIL171003
17/10/03 14:42:59,10,32017000,-,1,LOGFAIL171003
17/10/03 14:35:05,10,32017000,-,1,LOGFAIL171003
17/10/03 14:35:22,10,32017000,-,1,LOGFAIL171003
17/10/03 14:35:41,10,32017000,-,1,LOGFAIL171003
17/10/03 14:44:47,10,32017000,-,1,LOGFAIL171003
17/10/03 14:36:09,10,32017000,-,1,LOGFAIL171003
17/10/03 14:47:02,10,32017000,-,1,LOGFAIL171003
17/10/03 14:56:12,10,32017000,-,1,LOGFAIL171003
17/10/03 14:36:36,10,32017000,-,1,LOGFAIL171003
