Date,Code,MoxID,SensorID,FlagDB,Archivo
18/01/16 17:07:33,10,32017000,-,1,LOGFAIL180116
18/01/16 17:07:53,11,32017000,-,1,LOGFAIL180116
18/01/16 17:08:00,10,32017000,-,1,LOGFAIL180116
18/01/16 17:08:20,11,32017000,-,1,LOGFAIL180116
18/01/16 17:08:27,10,32017000,-,1,LOGFAIL180116
18/01/16 17:08:47,11,32017000,-,1,LOGFAIL180116
18/01/16 17:08:54,10,32017000,-,1,LOGFAIL180116
18/01/16 17:09:21,10,32017000,-,1,LOGFAIL180116
18/01/16 17:09:48,10,32017000,-,1,LOGFAIL180116
18/01/16 17:10:15,10,32017000,-,1,LOGFAIL180116
18/01/16 17:10:42,10,32017000,-,1,LOGFAIL180116
18/01/16 17:11:09,10,32017000,-,1,LOGFAIL180116
18/01/16 17:11:36,10,32017000,-,1,LOGFAIL180116
18/01/16 17:12:03,10,32017000,-,1,LOGFAIL180116
18/01/16 17:12:30,10,32017000,-,1,LOGFAIL180116
18/01/16 17:12:57,10,32017000,-,1,LOGFAIL180116
18/01/16 17:13:24,10,32017000,-,1,LOGFAIL180116
18/01/16 17:13:51,10,32017000,-,1,LOGFAIL180116
18/01/16 17:14:18,10,32017000,-,1,LOGFAIL180116
18/01/16 17:14:46,10,32017000,-,1,LOGFAIL180116
18/01/16 17:15:13,10,32017000,-,1,LOGFAIL180116
18/01/16 17:15:40,10,32017000,-,1,LOGFAIL180116
18/01/16 17:16:07,10,32017000,-,1,LOGFAIL180116
18/01/16 17:16:34,10,32017000,-,1,LOGFAIL180116
18/01/16 17:17:01,10,32017000,-,1,LOGFAIL180116
18/01/16 17:17:28,10,32017000,-,1,LOGFAIL180116
18/01/16 17:17:55,10,32017000,-,1,LOGFAIL180116
18/01/16 17:18:22,10,32017000,-,1,LOGFAIL180116
18/01/16 17:18:49,10,32017000,-,1,LOGFAIL180116
18/01/16 17:19:16,10,32017000,-,1,LOGFAIL180116
18/01/16 17:19:43,10,32017000,-,1,LOGFAIL180116
18/01/16 17:20:10,10,32017000,-,1,LOGFAIL180116
18/01/16 17:20:37,10,32017000,-,1,LOGFAIL180116
18/01/16 17:21:31,10,32017000,-,1,LOGFAIL180116
18/01/16 17:21:58,10,32017000,-,1,LOGFAIL180116
18/01/16 17:22:26,10,32017000,-,1,LOGFAIL180116
18/01/16 17:22:53,10,32017000,-,1,LOGFAIL180116
18/01/16 17:21:04,10,32017000,-,1,LOGFAIL180116
18/01/16 17:23:20,10,32017000,-,1,LOGFAIL180116
18/01/16 17:23:47,10,32017000,-,1,LOGFAIL180116
18/01/16 17:24:14,10,32017000,-,1,LOGFAIL180116
18/01/16 17:24:41,10,32017000,-,1,LOGFAIL180116
18/01/16 17:32:00,10,32017000,-,1,LOGFAIL180116
18/01/16 17:32:20,11,32017000,-,1,LOGFAIL180116
18/01/16 17:32:27,10,32017000,-,1,LOGFAIL180116
18/01/16 17:32:47,11,32017000,-,1,LOGFAIL180116
18/01/16 17:32:54,10,32017000,-,1,LOGFAIL180116
18/01/16 17:33:14,11,32017000,-,1,LOGFAIL180116
18/01/16 17:33:21,10,32017005,-,1,LOGFAIL180116
18/01/16 17:33:41,11,32017005,-,1,LOGFAIL180116
18/01/16 17:33:48,10,32017005,-,1,LOGFAIL180116
18/01/16 17:34:08,11,32017005,-,1,LOGFAIL180116
18/01/16 17:34:15,10,32017005,-,1,LOGFAIL180116
18/01/16 17:34:49,10,32017005,-,1,LOGFAIL180116
18/01/16 17:35:53,10,32017005,-,1,LOGFAIL180116
18/01/16 17:36:04,11,32017005,-,1,LOGFAIL180116
18/01/16 17:36:11,10,32017005,-,1,LOGFAIL180116
18/01/16 17:36:31,11,32017005,-,1,LOGFAIL180116
18/01/16 17:37:03,10,32017005,-,0,LOGFAIL180116
